[
  {
    "name": "Camera.java",
    "path": "src/com/ch/Camera.java",
    "content": {
      "structured": {
        "description": "A `Camera` class that abstracts away the details of a 3D camera's projection and view transformation, providing an interface for subclasses to implement their specific behavior. The `Camera` class has several methods for computing and manipulating the view and projection matrices, as well as handling transformations such as rotations and translations. Additionally, the code includes a `Transform` class that represents a transformation in the context of image processing, and a `CameraStruct` abstract class that serves as a base class for other classes in the `Camera` package.",
        "items": [
          {
            "id": "eca085ca-c778-1bbd-d74c-b19b7cf907ed",
            "ancestors": [],
            "type": "function",
            "description": "is an abstract class that provides methods for calculating view and projection matrices, as well as adjusting to a specified viewport size. It also has an abstract method `getAsMatrix4()` which returns a Matrix4f object without providing any implementation details. The class has several fields and methods for performing image transformations, including scaling, rotation, and flipping.",
            "name": "Camera",
            "location": {
              "start": 6,
              "insert": 6,
              "offset": " ",
              "indent": 0,
              "comment": null
            },
            "item_type": "class",
            "length": 110,
            "docLength": null
          }
        ]
      }
    }
  },
  {
    "name": "Camera3D.java",
    "path": "src/com/ch/Camera3D.java",
    "content": {
      "structured": {
        "description": "",
        "items": [
          {
            "id": "c727f3b0-7213-4ada-a77d-5c9186733815",
            "ancestors": [],
            "type": "function",
            "name": "calculateProjectionMatrix",
            "location": {
              "offset": "\t",
              "indent": 1,
              "insert": 25,
              "start": 25
            },
            "returns": "Matrix4f",
            "params": [
              {
                "name": "data",
                "type": "CameraStruct"
              }
            ],
            "skip": false,
            "docLength": null,
            "length": 4,
            "comment": {
              "description": "Takes a `CameraStruct` object as input and returns a `Matrix4f` representation of the camera's projection matrix.",
              "params": [
                {
                  "name": "data",
                  "type": "CameraStruct",
                  "description": "3D camera data for which the projection matrix is to be calculated."
                }
              ],
              "returns": {
                "type": "Matrix4f",
                "description": "a `Matrix4f` object containing the camera's projection matrix."
              }
            }
          }
        ]
      }
    }
  },
  {
    "name": "Main.java",
    "path": "src/com/ch/Main.java",
    "content": {
      "structured": {
        "description": "",
        "items": [
          {
            "id": "0e71844b-5042-444c-93fa-fdaae7107e13",
            "ancestors": [],
            "type": "function",
            "name": "main",
            "location": {
              "offset": "\t",
              "indent": 1,
              "insert": 17,
              "start": 17
            },
            "returns": false,
            "params": [
              {
                "name": "args",
                "type": "String[]"
              }
            ],
            "skip": false,
            "docLength": null,
            "length": 8,
            "comment": {
              "description": "Initializes display and GL resources, enters an infinite loop for rendering, and then exits with a status code of 0.",
              "params": [
                {
                  "name": "args",
                  "type": "String[]",
                  "description": "1 or more command-line arguments passed to the program when it is executed, which are then ignored in this specific implementation of `main()`."
                }
              ],
              "returns": null
            }
          }
        ]
      }
    }
  },
  {
    "name": "Model.java",
    "path": "src/com/ch/Model.java",
    "content": {
      "structured": {
        "description": "A model class that represents a 3D model and provides methods for drawing it on the screen using OpenGL. The class has several methods: `draw()` which draws the model using glDrawElements(); `enableAttribs()` and `disableAttribs()` which enable and disable vertex attributes, respectively; `getVAO()` and `getSize()` which return the VAO handle and size of the model, respectively; and `load()` which loads a 3D model from an array of vertices and an array of indices, creates a VAO handle, stores the data in a VBO and IBO, and returns a Model object.",
        "items": [
          {
            "id": "08ef9c12-1875-55b6-734d-8b6066c8451c",
            "ancestors": [],
            "type": "function",
            "description": "in this file is used to represent a 3D model in a graphics engine. It contains a vertex array object (VAO) and an index buffer object (IBO), which are used to store the model's vertices and indices, respectively. The class provides methods for binding and unbinding the VAO and IBO, as well as drawing the model and enabling/disabling vertex attributes. Additionally, the class provides a method for loading data from an array of vertices and an array of indices, which are used to create the model.",
            "name": "Model",
            "location": {
              "start": 8,
              "insert": 8,
              "offset": " ",
              "indent": 0,
              "comment": null
            },
            "item_type": "class",
            "length": 72,
            "docLength": null
          },
          {
            "id": "98e32ac5-227b-b897-4942-a33faf16efbf",
            "ancestors": [
              "08ef9c12-1875-55b6-734d-8b6066c8451c"
            ],
            "type": "function",
            "description": "binds a vertex array object, enables vertex attributes for position and texture coordinates, draws a collection of triangles using `GL_TRIANGLES`, disables the vertex attributes, and then unbinds the vertex array object.",
            "params": [],
            "usage": {
              "language": "java",
              "code": "Model model = Model.load(vertices, indices);\nmodel.draw();\n",
              "description": "\nThis code first loads the vertices and indices into a `Model` object using the static `load()` method. Then it calls the `draw()` method on the `Model` object to render the 3D model."
            },
            "name": "draw",
            "location": {
              "start": 16,
              "insert": 16,
              "offset": "\t",
              "indent": 1,
              "comment": null
            },
            "item_type": "method",
            "length": 10,
            "docLength": null
          },
          {
            "id": "60994856-f885-a194-c54b-bf8feda3d943",
            "ancestors": [
              "08ef9c12-1875-55b6-734d-8b6066c8451c"
            ],
            "type": "function",
            "description": "enables vertex attributes 0 and 1 for rendering in the GPU.",
            "params": [],
            "name": "enableAttribs",
            "location": {
              "start": 27,
              "insert": 27,
              "offset": "\t",
              "indent": 1,
              "comment": null
            },
            "item_type": "method",
            "length": 4,
            "docLength": null
          },
          {
            "id": "11204649-3587-23a6-fb48-2f245ef029d3",
            "ancestors": [
              "08ef9c12-1875-55b6-734d-8b6066c8451c"
            ],
            "type": "function",
            "description": "disables vertex attributes 0 and 1 of an OpenGL 2D context.",
            "params": [],
            "name": "disableAttribs",
            "location": {
              "start": 32,
              "insert": 32,
              "offset": "\t",
              "indent": 1,
              "comment": null
            },
            "item_type": "method",
            "length": 4,
            "docLength": null
          },
          {
            "id": "28de014f-125a-dfa0-9d47-683d7b250c17",
            "ancestors": [
              "08ef9c12-1875-55b6-734d-8b6066c8451c"
            ],
            "type": "function",
            "description": "retrieves the value of a variable 'vao'.",
            "params": [],
            "returns": {
              "type_name": "int",
              "description": "an integer value representing the `vao` field.",
              "complex_type": false
            },
            "usage": {
              "language": "java",
              "code": "Model m = Model.load(vertices, indices);\nint vao = m.getVAO();\n",
              "description": ""
            },
            "name": "getVAO",
            "location": {
              "start": 37,
              "insert": 37,
              "offset": "\t",
              "indent": 1,
              "comment": null
            },
            "item_type": "method",
            "length": 3,
            "docLength": null
          },
          {
            "id": "153e934c-ccb0-078a-b941-44f24b94ea72",
            "ancestors": [
              "08ef9c12-1875-55b6-734d-8b6066c8451c"
            ],
            "type": "function",
            "description": "returns the value of a field named `size`.",
            "params": [],
            "returns": {
              "type_name": "int",
              "description": "the value of the `size` field.",
              "complex_type": false
            },
            "usage": {
              "language": "java",
              "code": "public class Test{\n\tpublic static void main(String[] args){\n\t\tModel m=new Model();\n\t\tint size=m.getSize();\n\t\tSystem.out.println(\"Size of model is: \"+size);\n\t}\n}\n",
              "description": "\nThe output would be the number of vertices in the model."
            },
            "name": "getSize",
            "location": {
              "start": 41,
              "insert": 41,
              "offset": "\t",
              "indent": 1,
              "comment": null
            },
            "item_type": "method",
            "length": 3,
            "docLength": null
          },
          {
            "id": "53642136-e3d3-3483-6541-fdd0c2c5cda8",
            "ancestors": [
              "08ef9c12-1875-55b6-734d-8b6066c8451c"
            ],
            "type": "function",
            "description": "loads a 3D model into memory by creating a Vertex Array Object (VAO), storing index data, and then binding the VAO to the graphics pipeline.",
            "params": [
              {
                "name": "vertices",
                "type_name": "float[]",
                "description": "3D model's geometry data as a float array, which is stored in the Vertex Array Object (VAO) for rendering purposes.\n\n* `float[] vertices`: An array of `float` values representing 3D coordinates for model geometry.\n* `int[] indices`: An array of integers representing the vertex indices for drawing the model in a particular order.\n\nThe function first creates an Vulkan Vertex Array Object (VAO) using the `createVAO()` method, which is then used to store the indices and vertex data. The indices are stored using the `storeIndices()` method, followed by the vertex data using the `storeData()` method. Finally, the VAO is unbound using the `unbindVAO()` method.",
                "complex_type": true
              },
              {
                "name": "indices",
                "type_name": "int[]",
                "description": "3D model's index data, which is used to bind the vertices of the model to the appropriate indices in the vertex array object (VAO).\n\n* `indices`: An `int[]` array representing the indices of the vertices in the mesh.\n* `length`: The number of elements in the `indices` array, which is equal to the number of vertices in the mesh.",
                "complex_type": true
              }
            ],
            "returns": {
              "type_name": "Model",
              "description": "a `Model` object representing a 3D model.\n\nThe returned Model object has an integer vao field that contains the Vulkan handle for the Vertex Array Object (VAO) created in the function.\n\nThe v_count field represents the number of vertices stored in the buffer.\n\nThe Model object is a wrapper around the Vulkan handle and provides an easy-to-use interface for manipulating the data.",
              "complex_type": true
            },
            "name": "load",
            "location": {
              "start": 45,
              "insert": 45,
              "offset": "\t",
              "indent": 1,
              "comment": null
            },
            "item_type": "method",
            "length": 8,
            "docLength": null
          },
          {
            "id": "e68cfd5e-6a6f-3e9c-8d48-15b0ec1791fb",
            "ancestors": [
              "08ef9c12-1875-55b6-734d-8b6066c8451c"
            ],
            "type": "function",
            "description": "generates a new vertex array object (VBO) using the `glGenVertexArrays` method and binds it to the current context using `glBindVertexArray`.",
            "params": [],
            "returns": {
              "type_name": "int",
              "description": "an integer value representing a valid vertex array object (VBO) handle.",
              "complex_type": false
            },
            "name": "createVAO",
            "location": {
              "start": 54,
              "insert": 54,
              "offset": "\t",
              "indent": 1,
              "comment": null
            },
            "item_type": "method",
            "length": 5,
            "docLength": null
          },
          {
            "id": "43449c4f-7a09-45af-8e4e-1a8e55602cfc",
            "ancestors": [
              "08ef9c12-1875-55b6-734d-8b6066c8451c"
            ],
            "type": "function",
            "description": "creates a vertex buffer object (VBO) and binds it to a graphics processing unit (GPU). It then sets the data for two attributes using the `GLVertexAttribPointer` method and stores the buffer in memory.",
            "params": [
              {
                "name": "attrib",
                "type_name": "int",
                "description": "3D vertex attribute to which the data is being written, with the first value representing the position of the vertex and the second value representing the texture coordinate of the vertex.",
                "complex_type": false
              },
              {
                "name": "data",
                "type_name": "float[]",
                "description": "3D float array that contains the data to be stored in the vertex buffer object (VBO).\n\n* The `data` array is of length 4, indicating that it contains 4 floating-point values.\n* The `attrib` parameter indicates the location of the vertex attribute in the GPU's vertex shader, which is used to store the data in the buffer. In this case, `attrib` is set to 0 and 1, indicating two vertex attributes.\n* The `GL_FLOAT` type specifies the data type of the values stored in the buffer.\n* The `false` value for the `bool` parameter indicates that the buffer data is not stored in a synchronized manner with respect to other buffers or the GPU's clock.\n* The `5 * 4` value for the first `GL_VERTEX_ATTRIB_Pointer` call indicates that each vertex attribute has 3 floating-point values, while the `3 * 4` value for the second call indicates that the second attribute has 2 floating-point values.",
                "complex_type": true
              }
            ],
            "name": "storeData",
            "location": {
              "start": 60,
              "insert": 60,
              "offset": "\t",
              "indent": 1,
              "comment": null
            },
            "item_type": "method",
            "length": 8,
            "docLength": null
          },
          {
            "id": "9e426ff0-4b99-e39b-624a-38c756386de9",
            "ancestors": [
              "08ef9c12-1875-55b6-734d-8b6066c8451c"
            ],
            "type": "function",
            "description": "generates a new buffer object using the `glGenBuffers` method, binds it with `glBindBuffer`, and then transfers the `indices` array data to the buffer using `glBufferData`. The buffer is created in a flipped format for use in an element array buffer.",
            "params": [
              {
                "name": "indices",
                "type_name": "int[]",
                "description": "3D mesh's vertex positions, which are stored in a buffer object using the `GL_ELEMENT_ARRAY_BUFFER` buffer target and `GL_STATIC_DRAW` storage mode.\n\n* `indices` is an instance of `int[]`.\n* The length of the array is determined by the serialization method used to create the buffer.\n* Each element in the array represents a 2D vertex index, which can range from 0 to (width - 1) \\* (height - 1).\n* The elements are stored in a contiguous block of memory, allowing for efficient access and manipulation.",
                "complex_type": true
              }
            ],
            "name": "storeIndices",
            "location": {
              "start": 69,
              "insert": 69,
              "offset": "\t",
              "indent": 1,
              "comment": null
            },
            "item_type": "method",
            "length": 5,
            "docLength": null
          },
          {
            "id": "cf3f0f52-6752-548f-484e-6d792615ca1a",
            "ancestors": [
              "08ef9c12-1875-55b6-734d-8b6066c8451c"
            ],
            "type": "function",
            "description": "terminates the binding of a Vertex Array Object (VAO) by passing the ID of the VAO to `GL30.glBindVertexArray`.",
            "params": [],
            "name": "unbindVAO",
            "location": {
              "start": 75,
              "insert": 75,
              "offset": "\t",
              "indent": 1,
              "comment": null
            },
            "item_type": "method",
            "length": 3,
            "docLength": null
          }
        ]
      }
    }
  }
]